digraph "D:/Documents/UPSSITECH/Projet FR/pfr/src/Menus/Outils_Recherche_audio.c"
{
  edge [fontname="Helvetica",fontsize="10",labelfontname="Helvetica",labelfontsize="10"];
  node [fontname="Helvetica",fontsize="10",shape=record];
  Node0 [label="D:/Documents/UPSSITECH\l/Projet FR/pfr/src/Menus\l/Outils_Recherche_audio.c",height=0.2,width=0.4,color="black", fillcolor="grey75", style="filled", fontcolor="black"];
  Node0 -> Node1 [color="midnightblue",fontsize="10",style="solid",fontname="Helvetica"];
  Node1 [label="header.h",height=0.2,width=0.4,color="black", fillcolor="white", style="filled",URL="$_menus_2header_8h.html"];
  Node1 -> Node2 [color="midnightblue",fontsize="10",style="solid",fontname="Helvetica"];
  Node2 [label="../module_texte/Header.h",height=0.2,width=0.4,color="black", fillcolor="white", style="filled",URL="$module__texte_2header_8h.html"];
  Node2 -> Node3 [color="midnightblue",fontsize="10",style="solid",fontname="Helvetica"];
  Node3 [label="pile/pile_dynamique.h",height=0.2,width=0.4,color="black", fillcolor="white", style="filled",URL="$module__texte_2pile_2pile__dynamique_8h.html"];
  Node3 -> Node4 [color="midnightblue",fontsize="10",style="solid",fontname="Helvetica"];
  Node4 [label="../index/index.h",height=0.2,width=0.4,color="black", fillcolor="white", style="filled",URL="$index_8h.html",tooltip="Fichier contenant les prototypes des fonctions relatives aux index de mots. "];
  Node4 -> Node5 [color="midnightblue",fontsize="10",style="solid",fontname="Helvetica"];
  Node5 [label="../MOT/mot.h",height=0.2,width=0.4,color="black", fillcolor="white", style="filled",URL="$mot_8h.html",tooltip="Les fonctions relatives aux elements de type mot. "];
  Node5 -> Node6 [color="midnightblue",fontsize="10",style="solid",fontname="Helvetica"];
  Node6 [label="stdio.h",height=0.2,width=0.4,color="grey75", fillcolor="white", style="filled"];
  Node5 -> Node7 [color="midnightblue",fontsize="10",style="solid",fontname="Helvetica"];
  Node7 [label="stdlib.h",height=0.2,width=0.4,color="grey75", fillcolor="white", style="filled"];
  Node5 -> Node8 [color="midnightblue",fontsize="10",style="solid",fontname="Helvetica"];
  Node8 [label="string.h",height=0.2,width=0.4,color="grey75", fillcolor="white", style="filled"];
  Node4 -> Node9 [color="midnightblue",fontsize="10",style="solid",fontname="Helvetica"];
  Node9 [label="unistd.h",height=0.2,width=0.4,color="grey75", fillcolor="white", style="filled"];
  Node2 -> Node10 [color="midnightblue",fontsize="10",style="solid",fontname="Helvetica"];
  Node10 [label="ctype.h",height=0.2,width=0.4,color="grey75", fillcolor="white", style="filled"];
  Node2 -> Node11 [color="midnightblue",fontsize="10",style="solid",fontname="Helvetica"];
  Node11 [label="dirent.h",height=0.2,width=0.4,color="grey75", fillcolor="white", style="filled"];
  Node2 -> Node12 [color="midnightblue",fontsize="10",style="solid",fontname="Helvetica"];
  Node12 [label="sys/types.h",height=0.2,width=0.4,color="grey75", fillcolor="white", style="filled"];
  Node2 -> Node13 [color="midnightblue",fontsize="10",style="solid",fontname="Helvetica"];
  Node13 [label="sys/stat.h",height=0.2,width=0.4,color="grey75", fillcolor="white", style="filled"];
  Node2 -> Node9 [color="midnightblue",fontsize="10",style="solid",fontname="Helvetica"];
  Node1 -> Node14 [color="midnightblue",fontsize="10",style="solid",fontname="Helvetica"];
  Node14 [label="../module_image/moteur\l_recherche/moteur.h",height=0.2,width=0.4,color="black", fillcolor="white", style="filled",URL="$moteur_8h.html",tooltip="header de la partie recherche des images "];
  Node14 -> Node6 [color="midnightblue",fontsize="10",style="solid",fontname="Helvetica"];
  Node14 -> Node15 [color="midnightblue",fontsize="10",style="solid",fontname="Helvetica"];
  Node15 [label="../controle_descripteur.h",height=0.2,width=0.4,color="black", fillcolor="white", style="filled",URL="$controle__descripteur_8h.html",tooltip="header de la partie d&#39;indexation des images "];
  Node15 -> Node6 [color="midnightblue",fontsize="10",style="solid",fontname="Helvetica"];
  Node15 -> Node7 [color="midnightblue",fontsize="10",style="solid",fontname="Helvetica"];
  Node15 -> Node8 [color="midnightblue",fontsize="10",style="solid",fontname="Helvetica"];
  Node15 -> Node16 [color="midnightblue",fontsize="10",style="solid",fontname="Helvetica"];
  Node16 [label="libgen.h",height=0.2,width=0.4,color="grey75", fillcolor="white", style="filled"];
  Node15 -> Node11 [color="midnightblue",fontsize="10",style="solid",fontname="Helvetica"];
  Node15 -> Node12 [color="midnightblue",fontsize="10",style="solid",fontname="Helvetica"];
  Node15 -> Node13 [color="midnightblue",fontsize="10",style="solid",fontname="Helvetica"];
  Node15 -> Node17 [color="midnightblue",fontsize="10",style="solid",fontname="Helvetica"];
  Node17 [label="pile_dynamique.h",height=0.2,width=0.4,color="black", fillcolor="white", style="filled",URL="$module__image_2pile__dynamique_8h.html"];
  Node17 -> Node6 [color="midnightblue",fontsize="10",style="solid",fontname="Helvetica"];
  Node17 -> Node7 [color="midnightblue",fontsize="10",style="solid",fontname="Helvetica"];
  Node17 -> Node18 [color="midnightblue",fontsize="10",style="solid",fontname="Helvetica"];
  Node18 [label="descripteur.h",height=0.2,width=0.4,color="black", fillcolor="white", style="filled",URL="$module__image_2descripteur_8h.html"];
  Node18 -> Node7 [color="midnightblue",fontsize="10",style="solid",fontname="Helvetica"];
  Node18 -> Node6 [color="midnightblue",fontsize="10",style="solid",fontname="Helvetica"];
  Node1 -> Node19 [color="midnightblue",fontsize="10",style="solid",fontname="Helvetica"];
  Node19 [label="../module_audio/base\l_descripteur.h",height=0.2,width=0.4,color="black", fillcolor="white", style="filled",URL="$base__descripteur_8h.html",tooltip="L&#39;ensemble de fichier base_descripteur.h et base_descripteur.c sont là pour donner au programme princ..."];
  Node19 -> Node20 [color="midnightblue",fontsize="10",style="solid",fontname="Helvetica"];
  Node20 [label="descripteur.h",height=0.2,width=0.4,color="black", fillcolor="white", style="filled",URL="$module__audio_2descripteur_8h.html"];
  Node20 -> Node7 [color="midnightblue",fontsize="10",style="solid",fontname="Helvetica"];
  Node20 -> Node21 [color="midnightblue",fontsize="10",style="solid",fontname="Helvetica"];
  Node21 [label="histogramme.h",height=0.2,width=0.4,color="black", fillcolor="white", style="filled",URL="$histogramme_8h.html",tooltip="L&#39;ensemble de fichier histogramme.h et histogramme.c sont là pour donner au programme principal un en..."];
  Node19 -> Node21 [color="midnightblue",fontsize="10",style="solid",fontname="Helvetica"];
  Node19 -> Node22 [color="midnightblue",fontsize="10",style="solid",fontname="Helvetica"];
  Node22 [label="pile_dynamique.h",height=0.2,width=0.4,color="black", fillcolor="white", style="filled",URL="$module__audio_2pile__dynamique_8h.html"];
  Node22 -> Node6 [color="midnightblue",fontsize="10",style="solid",fontname="Helvetica"];
  Node22 -> Node7 [color="midnightblue",fontsize="10",style="solid",fontname="Helvetica"];
  Node22 -> Node20 [color="midnightblue",fontsize="10",style="solid",fontname="Helvetica"];
  Node0 -> Node23 [color="midnightblue",fontsize="10",style="solid",fontname="Helvetica"];
  Node23 [label="math.h",height=0.2,width=0.4,color="grey75", fillcolor="white", style="filled"];
}
