digraph "D:/Documents/UPSSITECH/Projet FR/pfr/src/module_image" {
  compound=true
  node [ fontsize="10", fontname="Helvetica"];
  edge [ labelfontsize="10", labelfontname="Helvetica"];
  subgraph clusterdir_a1bab6b81cec34f1a83e9a5d25da3575 {
    graph [ bgcolor="#ddddee", pencolor="black", label="src" fontname="Helvetica", fontsize="10", URL="dir_a1bab6b81cec34f1a83e9a5d25da3575.html"]
  subgraph clusterdir_9b407c17dff3423d5a605f3f2082ca61 {
    graph [ bgcolor="#eeeeff", pencolor="black", label="" URL="dir_9b407c17dff3423d5a605f3f2082ca61.html"];
    dir_9b407c17dff3423d5a605f3f2082ca61 [shape=plaintext label="module_image"];
    dir_9e9cc0906384487b491a95be3ff39279 [shape=box label="moteur_recherche" color="black" fillcolor="white" style="filled" URL="dir_9e9cc0906384487b491a95be3ff39279.html"];
  }
  }
}
