digraph "D:/Documents/UPSSITECH/Projet FR/pfr/src/module_texte/MOT/mot.h"
{
  edge [fontname="Helvetica",fontsize="10",labelfontname="Helvetica",labelfontsize="10"];
  node [fontname="Helvetica",fontsize="10",shape=record];
  Node4 [label="D:/Documents/UPSSITECH\l/Projet FR/pfr/src/module\l_texte/MOT/mot.h",height=0.2,width=0.4,color="black", fillcolor="grey75", style="filled", fontcolor="black"];
  Node4 -> Node5 [dir="back",color="midnightblue",fontsize="10",style="solid",fontname="Helvetica"];
  Node5 [label="D:/Documents/UPSSITECH\l/Projet FR/pfr/src/module\l_texte/index/index.h",height=0.2,width=0.4,color="black", fillcolor="white", style="filled",URL="$index_8h.html",tooltip="Fichier contenant les prototypes des fonctions relatives aux index de mots. "];
  Node5 -> Node6 [dir="back",color="midnightblue",fontsize="10",style="solid",fontname="Helvetica"];
  Node6 [label="D:/Documents/UPSSITECH\l/Projet FR/pfr/src/module\l_texte/pile/pile_dynamique.h",height=0.2,width=0.4,color="black", fillcolor="white", style="filled",URL="$module__texte_2pile_2pile__dynamique_8h.html"];
  Node6 -> Node7 [dir="back",color="midnightblue",fontsize="10",style="solid",fontname="Helvetica"];
  Node7 [label="D:/Documents/UPSSITECH\l/Projet FR/pfr/src/module\l_texte/Header.h",height=0.2,width=0.4,color="black", fillcolor="white", style="filled",URL="$module__texte_2header_8h.html"];
  Node7 -> Node8 [dir="back",color="midnightblue",fontsize="10",style="solid",fontname="Helvetica"];
  Node8 [label="D:/Documents/UPSSITECH\l/Projet FR/pfr/src/Menus\l/header.h",height=0.2,width=0.4,color="black", fillcolor="white", style="filled",URL="$_menus_2header_8h.html"];
  Node8 -> Node9 [dir="back",color="midnightblue",fontsize="10",style="solid",fontname="Helvetica"];
  Node9 [label="D:/Documents/UPSSITECH\l/Projet FR/pfr/src/Menus\l/Interprete_de_commandes.c",height=0.2,width=0.4,color="black", fillcolor="white", style="filled",URL="$_interprete__de__commandes_8c.html"];
  Node8 -> Node10 [dir="back",color="midnightblue",fontsize="10",style="solid",fontname="Helvetica"];
  Node10 [label="D:/Documents/UPSSITECH\l/Projet FR/pfr/src/Menus\l/Outils_Index_audio.c",height=0.2,width=0.4,color="black", fillcolor="white", style="filled",URL="$_outils___index__audio_8c.html"];
  Node8 -> Node11 [dir="back",color="midnightblue",fontsize="10",style="solid",fontname="Helvetica"];
  Node11 [label="D:/Documents/UPSSITECH\l/Projet FR/pfr/src/Menus\l/Outils_Index_Image.c",height=0.2,width=0.4,color="black", fillcolor="white", style="filled",URL="$_outils___index___image_8c.html"];
  Node8 -> Node12 [dir="back",color="midnightblue",fontsize="10",style="solid",fontname="Helvetica"];
  Node12 [label="D:/Documents/UPSSITECH\l/Projet FR/pfr/src/Menus\l/Outils_Index_Texte.c",height=0.2,width=0.4,color="black", fillcolor="white", style="filled",URL="$_outils___index___texte_8c.html"];
  Node8 -> Node13 [dir="back",color="midnightblue",fontsize="10",style="solid",fontname="Helvetica"];
  Node13 [label="D:/Documents/UPSSITECH\l/Projet FR/pfr/src/Menus\l/Outils_Recherche_audio.c",height=0.2,width=0.4,color="black", fillcolor="white", style="filled",URL="$_outils___recherche__audio_8c.html"];
  Node8 -> Node14 [dir="back",color="midnightblue",fontsize="10",style="solid",fontname="Helvetica"];
  Node14 [label="D:/Documents/UPSSITECH\l/Projet FR/pfr/src/Menus\l/Outils_Recherche_Image.c",height=0.2,width=0.4,color="black", fillcolor="white", style="filled",URL="$_outils___recherche___image_8c.html"];
  Node8 -> Node15 [dir="back",color="midnightblue",fontsize="10",style="solid",fontname="Helvetica"];
  Node15 [label="D:/Documents/UPSSITECH\l/Projet FR/pfr/src/Menus\l/Outils_Recherche_Texte.c",height=0.2,width=0.4,color="black", fillcolor="white", style="filled",URL="$_outils___recherche___texte_8c.html"];
  Node7 -> Node16 [dir="back",color="midnightblue",fontsize="10",style="solid",fontname="Helvetica"];
  Node16 [label="D:/Documents/UPSSITECH\l/Projet FR/pfr/src/module\l_texte/indexationTexteTest.c",height=0.2,width=0.4,color="black", fillcolor="white", style="filled",URL="$indexation_texte_test_8c.html"];
  Node7 -> Node17 [dir="back",color="midnightblue",fontsize="10",style="solid",fontname="Helvetica"];
  Node17 [label="D:/Documents/UPSSITECH\l/Projet FR/pfr/src/module\l_texte/outils.c",height=0.2,width=0.4,color="black", fillcolor="white", style="filled",URL="$outils_8c.html",tooltip="Quelques fonctions annexes nécessaire au bon fonctionnement. "];
  Node7 -> Node18 [dir="back",color="midnightblue",fontsize="10",style="solid",fontname="Helvetica"];
  Node18 [label="D:/Documents/UPSSITECH\l/Projet FR/pfr/src/module\l_texte/recherche.c",height=0.2,width=0.4,color="black", fillcolor="white", style="filled",URL="$recherche_8c.html",tooltip="Fonctions de recherche du module texte. "];
  Node7 -> Node19 [dir="back",color="midnightblue",fontsize="10",style="solid",fontname="Helvetica"];
  Node19 [label="D:/Documents/UPSSITECH\l/Projet FR/pfr/src/module\l_texte/xml_cleaner.c",height=0.2,width=0.4,color="black", fillcolor="white", style="filled",URL="$xml__cleaner_8c.html",tooltip="Fonctions permettant de nettoyer un fichier xml et d&#39;obtenir un .xml. "];
  Node7 -> Node20 [dir="back",color="midnightblue",fontsize="10",style="solid",fontname="Helvetica"];
  Node20 [label="D:/Documents/UPSSITECH\l/Projet FR/pfr/src/module\l_texte/xml_index.c",height=0.2,width=0.4,color="black", fillcolor="white", style="filled",URL="$xml__index_8c.html",tooltip="Fonctions d&#39;indexations et de création de piles de descripteurs. "];
  Node7 -> Node21 [dir="back",color="midnightblue",fontsize="10",style="solid",fontname="Helvetica"];
  Node21 [label="D:/Documents/UPSSITECH\l/Projet FR/pfr/src/module\l_texte/xml_tokenizer.c",height=0.2,width=0.4,color="black", fillcolor="white", style="filled",URL="$xml__tokenizer_8c.html",tooltip="Fonctions de nettoyage de fichiers .clean. "];
  Node6 -> Node22 [dir="back",color="midnightblue",fontsize="10",style="solid",fontname="Helvetica"];
  Node22 [label="D:/Documents/UPSSITECH\l/Projet FR/pfr/src/module\l_audio/tests/test_audio.c",height=0.2,width=0.4,color="black", fillcolor="white", style="filled",URL="$tests_2test__audio_8c.html"];
  Node6 -> Node23 [dir="back",color="midnightblue",fontsize="10",style="solid",fontname="Helvetica"];
  Node23 [label="D:/Documents/UPSSITECH\l/Projet FR/pfr/src/module\l_audio/tests/test_evaluation.c",height=0.2,width=0.4,color="black", fillcolor="white", style="filled",URL="$tests_2test__evaluation_8c.html"];
  Node6 -> Node24 [dir="back",color="midnightblue",fontsize="10",style="solid",fontname="Helvetica"];
  Node24 [label="D:/Documents/UPSSITECH\l/Projet FR/pfr/src/module\l_texte/pile/pile_dynamique.c",height=0.2,width=0.4,color="black", fillcolor="white", style="filled",URL="$module__texte_2pile_2pile__dynamique_8c.html"];
  Node5 -> Node25 [dir="back",color="midnightblue",fontsize="10",style="solid",fontname="Helvetica"];
  Node25 [label="D:/Documents/UPSSITECH\l/Projet FR/pfr/src/module\l_texte/index/index.c",height=0.2,width=0.4,color="black", fillcolor="white", style="filled",URL="$index_8c.html",tooltip="Fonctions relatives aux index de mots. "];
  Node4 -> Node26 [dir="back",color="midnightblue",fontsize="10",style="solid",fontname="Helvetica"];
  Node26 [label="D:/Documents/UPSSITECH\l/Projet FR/pfr/src/module\l_texte/MOT/mot.c",height=0.2,width=0.4,color="black", fillcolor="white", style="filled",URL="$mot_8c.html",tooltip="Les fonctions relatives aux elements de type mot. "];
}
