digraph "D:/Documents/UPSSITECH/Projet FR/pfr/src/module_image/moteur_recherche/moteur.h"
{
  edge [fontname="Helvetica",fontsize="10",labelfontname="Helvetica",labelfontsize="10"];
  node [fontname="Helvetica",fontsize="10",shape=record];
  Node0 [label="D:/Documents/UPSSITECH\l/Projet FR/pfr/src/module\l_image/moteur_recherche/moteur.h",height=0.2,width=0.4,color="black", fillcolor="grey75", style="filled", fontcolor="black"];
  Node0 -> Node1 [color="midnightblue",fontsize="10",style="solid",fontname="Helvetica"];
  Node1 [label="stdio.h",height=0.2,width=0.4,color="grey75", fillcolor="white", style="filled"];
  Node0 -> Node2 [color="midnightblue",fontsize="10",style="solid",fontname="Helvetica"];
  Node2 [label="../controle_descripteur.h",height=0.2,width=0.4,color="black", fillcolor="white", style="filled",URL="$controle__descripteur_8h.html",tooltip="header de la partie d&#39;indexation des images "];
  Node2 -> Node1 [color="midnightblue",fontsize="10",style="solid",fontname="Helvetica"];
  Node2 -> Node3 [color="midnightblue",fontsize="10",style="solid",fontname="Helvetica"];
  Node3 [label="stdlib.h",height=0.2,width=0.4,color="grey75", fillcolor="white", style="filled"];
  Node2 -> Node4 [color="midnightblue",fontsize="10",style="solid",fontname="Helvetica"];
  Node4 [label="string.h",height=0.2,width=0.4,color="grey75", fillcolor="white", style="filled"];
  Node2 -> Node5 [color="midnightblue",fontsize="10",style="solid",fontname="Helvetica"];
  Node5 [label="libgen.h",height=0.2,width=0.4,color="grey75", fillcolor="white", style="filled"];
  Node2 -> Node6 [color="midnightblue",fontsize="10",style="solid",fontname="Helvetica"];
  Node6 [label="dirent.h",height=0.2,width=0.4,color="grey75", fillcolor="white", style="filled"];
  Node2 -> Node7 [color="midnightblue",fontsize="10",style="solid",fontname="Helvetica"];
  Node7 [label="sys/types.h",height=0.2,width=0.4,color="grey75", fillcolor="white", style="filled"];
  Node2 -> Node8 [color="midnightblue",fontsize="10",style="solid",fontname="Helvetica"];
  Node8 [label="sys/stat.h",height=0.2,width=0.4,color="grey75", fillcolor="white", style="filled"];
  Node2 -> Node9 [color="midnightblue",fontsize="10",style="solid",fontname="Helvetica"];
  Node9 [label="pile_dynamique.h",height=0.2,width=0.4,color="black", fillcolor="white", style="filled",URL="$module__image_2pile__dynamique_8h.html"];
  Node9 -> Node1 [color="midnightblue",fontsize="10",style="solid",fontname="Helvetica"];
  Node9 -> Node3 [color="midnightblue",fontsize="10",style="solid",fontname="Helvetica"];
  Node9 -> Node10 [color="midnightblue",fontsize="10",style="solid",fontname="Helvetica"];
  Node10 [label="descripteur.h",height=0.2,width=0.4,color="black", fillcolor="white", style="filled",URL="$module__image_2descripteur_8h.html"];
  Node10 -> Node3 [color="midnightblue",fontsize="10",style="solid",fontname="Helvetica"];
  Node10 -> Node1 [color="midnightblue",fontsize="10",style="solid",fontname="Helvetica"];
}
