digraph "cellule_audio_t"
{
  edge [fontname="Helvetica",fontsize="10",labelfontname="Helvetica",labelfontsize="10"];
  node [fontname="Helvetica",fontsize="10",shape=record];
  Node1 [label="cellule_audio_t",height=0.2,width=0.4,color="black", fillcolor="grey75", style="filled", fontcolor="black"];
  Node1 -> Node1 [dir="back",color="darkorchid3",fontsize="10",style="dashed",label=" suivant" ,fontname="Helvetica"];
  Node2 -> Node1 [dir="back",color="darkorchid3",fontsize="10",style="dashed",label=" elem" ,fontname="Helvetica"];
  Node2 [label="Descripteur_Audio_t",height=0.2,width=0.4,color="black", fillcolor="white", style="filled",URL="$struct_descripteur___audio__t.html"];
  Node3 -> Node2 [dir="back",color="darkorchid3",fontsize="10",style="dashed",label=" histo" ,fontname="Helvetica"];
  Node3 [label="Histogramme_Audio_t",height=0.2,width=0.4,color="black", fillcolor="white", style="filled",URL="$struct_histogramme___audio__t.html"];
}
