digraph "D:/Documents/UPSSITECH/Projet FR/pfr/src/module_audio/wav_file_helper.c"
{
  edge [fontname="Helvetica",fontsize="10",labelfontname="Helvetica",labelfontsize="10"];
  node [fontname="Helvetica",fontsize="10",shape=record];
  Node0 [label="D:/Documents/UPSSITECH\l/Projet FR/pfr/src/module\l_audio/wav_file_helper.c",height=0.2,width=0.4,color="black", fillcolor="grey75", style="filled", fontcolor="black"];
  Node0 -> Node1 [color="midnightblue",fontsize="10",style="solid",fontname="Helvetica"];
  Node1 [label="stdio.h",height=0.2,width=0.4,color="grey75", fillcolor="white", style="filled"];
  Node0 -> Node2 [color="midnightblue",fontsize="10",style="solid",fontname="Helvetica"];
  Node2 [label="wav_file_helper.h",height=0.2,width=0.4,color="black", fillcolor="white", style="filled",URL="$wav__file__helper_8h.html",tooltip="Petit outil permettant de récupérer des informations présentes dans l&#39;entête du fichier au format WAV..."];
}
